practical/vhdl_examples/flipFlopD/simulation/qsim/flipFlopD.msim.vcd
$comment
	File created using the following command:
		vcd file flipFlopD.msim.vcd -direction
$end
$date
	Fri Oct 20 22:17:49 2023
$end
$version
	ModelSim Version 2020.1
$end
$timescale
	1ps
$end

$scope module flipflopd_vhd_vec_tst $end
$var wire 1 ! clk $end
$var wire 1 " D $end
$var wire 1 # nQ $end
$var wire 1 $ nRst $end
$var wire 1 % nSet $end
$var wire 1 & Q $end

$scope module i1 $end
$var wire 1 ' gnd $end
$var wire 1 ( vcc $end
$var wire 1 ) unknown $end
$var wire 1 * devoe $end
$var wire 1 + devclrn $end
$var wire 1 , devpor $end
$var wire 1 - ww_devoe $end
$var wire 1 . ww_devclrn $end
$var wire 1 / ww_devpor $end
$var wire 1 0 ww_clk $end
$var wire 1 1 ww_D $end
$var wire 1 2 ww_nSet $end
$var wire 1 3 ww_nRst $end
$var wire 1 4 ww_Q $end
$var wire 1 5 ww_nQ $end
$var wire 1 6 \~QUARTUS_CREATED_GND~I_combout\ $end
$var wire 1 7 \nRst~input_o\ $end
$var wire 1 8 \nSet~input_o\ $end
$var wire 1 9 \D~input_o\ $end
$var wire 1 : \clk~input_o\ $end
$var wire 1 ; \sr20|nand0|y~1_combout\ $end
$var wire 1 < \sr30|nand0|y~1_combout\ $end
$var wire 1 = \sr31|nand0|y~1_combout\ $end
$var wire 1 > \sr31|nand1|y~0_combout\ $end
$var wire 1 ? \ALT_INV_clk~input_o\ $end
$var wire 1 @ \ALT_INV_nSet~input_o\ $end
$var wire 1 A \ALT_INV_D~input_o\ $end
$var wire 1 B \ALT_INV_nRst~input_o\ $end
$var wire 1 C \sr20|nand0|ALT_INV_y~1_combout\ $end
$var wire 1 D \sr30|nand0|ALT_INV_y~1_combout\ $end
$var wire 1 E \sr31|nand0|ALT_INV_y~1_combout\ $end
$var wire 1 F \sr31|nand1|ALT_INV_y~0_combout\ $end
$upscope $end
$upscope $end
$enddefinitions $end
#0
$dumpvars
0!
0"
0#
1$
0%
1&
0'
1(
x)
1*
1+
1,
1-
1.
1/
00
01
02
13
14
05
x6
17
08
09
0:
0;
1<
0=
1>
1?
1@
1A
0B
1C
0D
1E
0F
$end
#20000
1!
10
1:
0?
1;
0C
#30000
1%
12
18
0@
#40000
0!
00
0:
1?
0;
1C
#60000
1!
10
1:
0?
0<
1D
1;
1<
1=
0>
1F
0E
0D
0C
04
15
0&
1#
#70000
1"
11
19
0A
#80000
0!
00
0:
1?
0;
1C
#100000
1!
10
1:
0?
0<
1D
1;
1<
0=
1E
0D
0C
1>
0F
14
1&
05
0#
#120000
0!
00
0:
1?
0;
1C
#130000
0$
03
07
1B
1=
0>
1F
0E
04
15
0&
1#
#140000
1!
10
1:
0?
1;
0C
#150000
1$
13
17
0B
#160000
0!
00
0:
1?
0;
1C
#180000
1!
10
1:
0?
0<
1D
1;
1<
0=
1E
0D
0C
1>
0F
14
1&
05
0#
#190000
0"
01
09
1A
#200000
0!
0$
0%
00
03
02
08
07
0:
1?
1B
1@
0>
0;
1C
1F
15
1#
#220000
1!
10
1:
0?
1;
0C
#240000
0!
00
0:
1?
0;
1C
#260000
1!
10
1:
0?
1;
0C
#280000
0!
00
0:
1?
0;
1C
#300000
1!
10
1:
0?
1;
0C
#320000
0!
00
0:
1?
0;
1C
#340000
1!
10
1:
0?
1;
0C
#360000
0!
00
0:
1?
0;
1C
#380000
1!
10
1:
0?
1;
0C
#400000
0!
00
0:
1?
0;
1C
#420000
1!
10
1:
0?
1;
0C
#440000
0!
00
0:
1?
0;
1C
#460000
1!
10
1:
0?
1;
0C
#480000
0!
00
0:
1?
0;
1C
#500000
1!
10
1:
0?
1;
0C
#520000
0!
00
0:
1?
0;
1C
#540000
1!
10
1:
0?
1;
0C
#560000
0!
00
0:
1?
0;
1C
#580000
1!
10
1:
0?
1;
0C
#600000
0!
00
0:
1?
0;
1C
#620000
1!
10
1:
0?
1;
0C
#640000
0!
00
0:
1?
0;
1C
#660000
1!
10
1:
0?
1;
0C
#680000
0!
00
0:
1?
0;
1C
#700000
1!
10
1:
0?
1;
0C
#720000
0!
00
0:
1?
0;
1C
#740000
1!
10
1:
0?
1;
0C
#760000
0!
00
0:
1?
0;
1C
#780000
1!
10
1:
0?
1;
0C
#800000
0!
00
0:
1?
0;
1C
#820000
1!
10
1:
0?
1;
0C
#840000
0!
00
0:
1?
0;
1C
#860000
1!
10
1:
0?
1;
0C
#880000
0!
00
0:
1?
0;
1C
#900000
1!
10
1:
0?
1;
0C
#920000
0!
00
0:
1?
0;
1C
#940000
1!
10
1:
0?
1;
0C
#960000
0!
00
0:
1?
0;
1C
#980000
1!
10
1:
0?
1;
0C
