practical/vhdl_examples/popCounter_32bitSerial/simulation/qsim/popCounter_32bitSerial.msim.vcd
$comment
	File created using the following command:
		vcd file popCounter_32bitSerial.msim.vcd -direction
$end
$date
	Wed Nov 15 22:41:24 2023
$end
$version
	ModelSim Version 2020.1
$end
$timescale
	1ps
$end

$scope module popcounter_32bitserial_vhd_vec_tst $end
$var wire 1 ! clk $end
$var wire 1 " cnt [5] $end
$var wire 1 # cnt [4] $end
$var wire 1 $ cnt [3] $end
$var wire 1 % cnt [2] $end
$var wire 1 & cnt [1] $end
$var wire 1 ' cnt [0] $end
$var wire 1 ( dIn $end
$var wire 1 ) nGRst $end

$scope module i1 $end
$var wire 1 * gnd $end
$var wire 1 + vcc $end
$var wire 1 , unknown $end
$var wire 1 - devoe $end
$var wire 1 . devclrn $end
$var wire 1 / devpor $end
$var wire 1 0 ww_devoe $end
$var wire 1 1 ww_devclrn $end
$var wire 1 2 ww_devpor $end
$var wire 1 3 ww_nGRst $end
$var wire 1 4 ww_clk $end
$var wire 1 5 ww_dIn $end
$var wire 1 6 ww_cnt [5] $end
$var wire 1 7 ww_cnt [4] $end
$var wire 1 8 ww_cnt [3] $end
$var wire 1 9 ww_cnt [2] $end
$var wire 1 : ww_cnt [1] $end
$var wire 1 ; ww_cnt [0] $end
$var wire 1 < \~QUARTUS_CREATED_GND~I_combout\ $end
$var wire 1 = \clk~input_o\ $end
$var wire 1 > \clk~inputCLKENA0_outclk\ $end
$var wire 1 ? \bc|ff0|Q~0_combout\ $end
$var wire 1 @ \bc|ff1|Q~0_combout\ $end
$var wire 1 A \bc|ff1|Q~q\ $end
$var wire 1 B \bc|ff2|Q~0_combout\ $end
$var wire 1 C \bc|ff2|Q~q\ $end
$var wire 1 D \bc|ff3|Q~0_combout\ $end
$var wire 1 E \bc|ff3|Q~q\ $end
$var wire 1 F \bc|ff4|Q~0_combout\ $end
$var wire 1 G \bc|ff4|Q~q\ $end
$var wire 1 H \bc|ff5|Q~0_combout\ $end
$var wire 1 I \bc|ff5|Q~q\ $end
$var wire 1 J \nGRst~input_o\ $end
$var wire 1 K \con|nad4|y~0_combout\ $end
$var wire 1 L \con|nad2|y~0_combout\ $end
$var wire 1 M \bc|ff0|Q~q\ $end
$var wire 1 N \con|nord|y~0_combout\ $end
$var wire 1 O \pr5|ff0|Q~q\ $end
$var wire 1 P \dIn~input_o\ $end
$var wire 1 Q \ff|Q~q\ $end
$var wire 1 R \hd|hA10|xor20|y~combout\ $end
$var wire 1 S \pr6|ff0|Q~0_combout\ $end
$var wire 1 T \con|nad4|y~1_combout\ $end
$var wire 1 U \pr6|ff0|Q~q\ $end
$var wire 1 V \pr5|ff1|Q~q\ $end
$var wire 1 W \pr5|ff0|Q~DUPLICATE_q\ $end
$var wire 1 X \hd|hA11|xor20|y~combout\ $end
$var wire 1 Y \pr6|ff1|Q~0_combout\ $end
$var wire 1 Z \pr6|ff1|Q~q\ $end
$var wire 1 [ \pr5|ff2|Q~q\ $end
$var wire 1 \ \hd|hA12|xor20|y~combout\ $end
$var wire 1 ] \pr6|ff2|Q~0_combout\ $end
$var wire 1 ^ \pr6|ff2|Q~q\ $end
$var wire 1 _ \pr5|ff3|Q~q\ $end
$var wire 1 ` \hd|hA13|xor20|y~combout\ $end
$var wire 1 a \pr6|ff3|Q~0_combout\ $end
$var wire 1 b \pr6|ff3|Q~q\ $end
$var wire 1 c \pr5|ff4|Q~q\ $end
$var wire 1 d \hd|hA14|xor20|y~combout\ $end
$var wire 1 e \pr6|ff4|Q~0_combout\ $end
$var wire 1 f \pr6|ff4|Q~q\ $end
$var wire 1 g \hd|hA14|and20|y~combout\ $end
$var wire 1 h \pr6|ff5|Q~q\ $end
$var wire 1 i \pr5|ff0|ALT_INV_Q~DUPLICATE_q\ $end
$var wire 1 j \ALT_INV_nGRst~input_o\ $end
$var wire 1 k \ALT_INV_clk~input_o\ $end
$var wire 1 l \con|nad2|ALT_INV_y~0_combout\ $end
$var wire 1 m \hd|hA14|xor20|ALT_INV_y~combout\ $end
$var wire 1 n \pr5|ff4|ALT_INV_Q~q\ $end
$var wire 1 o \hd|hA13|xor20|ALT_INV_y~combout\ $end
$var wire 1 p \pr5|ff3|ALT_INV_Q~q\ $end
$var wire 1 q \hd|hA12|xor20|ALT_INV_y~combout\ $end
$var wire 1 r \pr5|ff2|ALT_INV_Q~q\ $end
$var wire 1 s \hd|hA11|xor20|ALT_INV_y~combout\ $end
$var wire 1 t \pr5|ff1|ALT_INV_Q~q\ $end
$var wire 1 u \con|nad4|ALT_INV_y~1_combout\ $end
$var wire 1 v \bc|ff0|ALT_INV_Q~q\ $end
$var wire 1 w \bc|ff5|ALT_INV_Q~q\ $end
$var wire 1 x \con|nad4|ALT_INV_y~0_combout\ $end
$var wire 1 y \bc|ff2|ALT_INV_Q~q\ $end
$var wire 1 z \bc|ff1|ALT_INV_Q~q\ $end
$var wire 1 { \bc|ff3|ALT_INV_Q~q\ $end
$var wire 1 | \bc|ff4|ALT_INV_Q~q\ $end
$var wire 1 } \hd|hA10|xor20|ALT_INV_y~combout\ $end
$var wire 1 ~ \pr5|ff0|ALT_INV_Q~q\ $end
$var wire 1 !! \ff|ALT_INV_Q~q\ $end
$var wire 1 "! \pr6|ff5|ALT_INV_Q~q\ $end
$var wire 1 #! \pr6|ff4|ALT_INV_Q~q\ $end
$var wire 1 $! \pr6|ff3|ALT_INV_Q~q\ $end
$var wire 1 %! \pr6|ff2|ALT_INV_Q~q\ $end
$var wire 1 &! \pr6|ff1|ALT_INV_Q~q\ $end
$var wire 1 '! \pr6|ff0|ALT_INV_Q~q\ $end
$upscope $end
$upscope $end
$enddefinitions $end
#0
$dumpvars
0!
0(
0)
0*
1+
x,
1-
1.
1/
10
11
12
03
04
05
x<
0=
0>
1?
0@
0A
0B
0C
0D
0E
0F
0G
0H
0I
0J
1K
0L
0M
0N
0O
0P
0Q
0R
1S
0T
0U
0V
0W
0X
1Y
0Z
0[
0\
1]
0^
0_
0`
1a
0b
0c
0d
1e
0f
1g
0h
1i
1j
1k
1l
1m
1n
1o
1p
1q
1r
1s
1t
1u
1v
1w
0x
1y
1z
1{
1|
1}
1~
1!!
1"!
1#!
1$!
1%!
1&!
1'!
16
17
18
19
1:
1;
1"
1#
1$
1%
1&
1'
$end
#10000
1!
14
1=
1>
0k
1L
1T
1M
0v
0u
0l
0M
0?
1@
1v
1?
0@
#20000
0!
1(
1)
04
15
13
1J
1P
0=
0>
1k
0j
0L
0T
1u
1l
#30000
1!
14
1=
1>
0k
1M
1Q
0!!
0v
0?
1@
1T
1R
0}
0u
0S
#40000
0!
0(
04
05
0P
0=
0>
1k
0T
1u
#50000
1!
14
1=
1>
0k
1T
1A
0M
1O
0Q
1W
0i
1!!
0~
1v
0z
0u
0K
1?
0T
1u
1x
#60000
0!
04
0=
0>
1k
#70000
1!
14
1=
1>
0k
1M
0v
0?
0@
1B
#80000
0!
04
0=
0>
1k
#90000
1!
14
1=
1>
0k
0A
1C
0M
1v
0y
1z
1?
#100000
0!
04
0=
0>
1k
#110000
1!
14
1=
1>
0k
1M
0v
0?
1@
#120000
0!
04
0=
0>
1k
#130000
1!
14
1=
1>
0k
1A
0M
1v
0z
1?
#140000
0!
04
0=
0>
1k
#150000
1!
14
1=
1>
0k
1M
0v
0?
0@
0B
1D
#160000
0!
04
0=
0>
1k
#170000
1!
14
1=
1>
0k
0A
0C
1E
0M
1v
0{
1y
1z
1?
#180000
0!
04
0=
0>
1k
#190000
1!
14
1=
1>
0k
1M
0v
0?
1@
#200000
0!
04
0=
0>
1k
#210000
1!
14
1=
1>
0k
1A
0M
1v
0z
1?
#220000
0!
04
0=
0>
1k
#230000
1!
14
1=
1>
0k
1M
0v
0?
0@
1B
#240000
0!
04
0=
0>
1k
#250000
1!
14
1=
1>
0k
0A
1C
0M
1v
0y
1z
1?
#260000
0!
1(
04
15
1P
0=
0>
1k
#270000
1!
14
1=
1>
0k
1M
1Q
0!!
0v
0?
1@
0R
1X
0s
1}
1S
0Y
#280000
0!
04
0=
0>
1k
#290000
1!
14
1=
1>
0k
1A
0M
0O
1V
0W
1i
0t
1~
1v
0z
1?
1R
0}
0S
#300000
0!
04
0=
0>
1k
#310000
1!
14
1=
1>
0k
1M
1O
1W
0i
0~
0v
0?
0@
0B
0D
1F
0R
1\
0X
1s
0q
1}
1S
0]
1Y
#320000
0!
04
0=
0>
1k
#330000
1!
14
1=
1>
0k
0A
0C
0E
1G
0M
0O
0V
0W
1[
0r
1i
1t
1~
1v
0|
1{
1y
1z
1?
1R
0}
0S
#340000
0!
0(
04
05
0P
0=
0>
1k
#350000
1!
14
1=
1>
0k
1M
1O
0Q
1W
0i
1!!
0~
0v
0?
1@
#360000
0!
04
0=
0>
1k
#370000
1!
14
1=
1>
0k
1A
0M
1v
0z
1?
#380000
0!
04
0=
0>
1k
#390000
1!
14
1=
1>
0k
1M
0v
0?
0@
1B
#400000
0!
04
0=
0>
1k
#410000
1!
14
1=
1>
0k
0A
1C
0M
1v
0y
1z
1?
#420000
0!
04
0=
0>
1k
#430000
1!
14
1=
1>
0k
1M
0v
0?
1@
#440000
0!
04
0=
0>
1k
#450000
1!
14
1=
1>
0k
1A
0M
1v
0z
1?
#460000
0!
1(
04
15
1P
0=
0>
1k
#470000
1!
14
1=
1>
0k
1M
1Q
0!!
0v
0?
0@
0B
1D
0R
1X
0s
1}
1S
0Y
#480000
0!
04
0=
0>
1k
#490000
1!
14
1=
1>
0k
0A
0C
1E
0M
0O
1V
0W
1i
0t
1~
1v
0{
1y
1z
1?
1R
0}
0S
#500000
0!
0(
04
05
0P
0=
0>
1k
#510000
1!
14
1=
1>
0k
1M
1O
0Q
1W
0i
1!!
0~
0v
0?
1@
#520000
0!
04
0=
0>
1k
#530000
1!
14
1=
1>
0k
1A
0M
1v
0z
1?
#540000
0!
04
0=
0>
1k
#550000
1!
14
1=
1>
0k
1M
0v
0?
0@
1B
#560000
0!
04
0=
0>
1k
#570000
1!
14
1=
1>
0k
0A
1C
0M
1v
0y
1z
1?
#580000
0!
04
0=
0>
1k
#590000
1!
14
1=
1>
0k
1M
0v
0?
1@
#600000
0!
04
0=
0>
1k
#610000
1!
14
1=
1>
0k
1A
0M
1v
0z
1?
#620000
0!
04
0=
0>
1k
#630000
1!
14
1=
1>
0k
1M
0v
0?
0@
0B
0D
0F
1H
#640000
0!
04
0=
0>
1k
#650000
1!
14
1=
1>
0k
0A
0C
0E
0G
1I
0M
1v
0w
1|
1{
1y
1z
1K
1?
0x
#660000
0!
04
0=
0>
1k
1N
1b
1f
1h
0"!
0#!
0$!
08
07
06
0$
0#
0"
#670000
1!
14
1=
1>
0k
0N
1M
0v
0?
1@
1L
0l
0I
0M
0O
0V
0W
0[
1r
1i
1t
1~
1v
1w
1?
0@
0H
0L
0R
0X
0\
1q
1s
1}
1l
1S
1Y
1]
#680000
0!
1(
04
15
1P
0=
0>
1k
#690000
1!
14
1=
1>
0k
1M
1Q
0!!
0v
0?
1@
1T
1R
0}
0u
0b
0f
0h
0S
1"!
1#!
1$!
18
17
16
1$
1#
1"
#700000
0!
04
0=
0>
1k
0T
1u
#710000
1!
14
1=
1>
0k
1T
1A
0M
1O
1W
0i
0~
1v
0z
0u
0K
1?
0T
0R
1X
0s
1}
1u
1x
1S
0Y
#720000
0!
04
0=
0>
1k
#730000
1!
14
1=
1>
0k
1M
0O
1V
0W
1i
0t
1~
0v
0?
0@
1B
1R
0}
0S
#740000
0!
04
0=
0>
1k
#750000
1!
14
1=
1>
0k
0A
1C
0M
1O
1W
0i
0~
1v
0y
1z
1?
0R
1\
0X
1s
0q
1}
1S
0]
1Y
#760000
0!
04
0=
0>
1k
#770000
1!
14
1=
1>
0k
1M
0O
0V
0W
1[
0r
1i
1t
1~
0v
0?
1@
1R
0}
0S
#780000
0!
04
0=
0>
1k
#790000
1!
14
1=
1>
0k
1A
0M
1O
1W
0i
0~
1v
0z
1?
0R
1X
0s
1}
1S
0Y
#800000
0!
0(
04
05
0P
0=
0>
1k
#810000
1!
14
1=
1>
0k
1M
0O
0Q
1V
0W
1i
0t
1!!
1~
0v
0?
0@
0B
1D
#820000
0!
1(
04
15
1P
0=
0>
1k
#830000
1!
14
1=
1>
0k
0A
0C
1E
0M
1Q
0!!
1v
0{
1y
1z
1?
1R
0}
0S
#840000
0!
04
0=
0>
1k
#850000
1!
14
1=
1>
0k
1M
1O
1W
0i
0~
0v
0?
1@
0R
0\
1`
0X
1s
0o
1q
1}
1S
1]
0a
1Y
#860000
0!
04
0=
0>
1k
#870000
1!
14
1=
1>
0k
1A
0M
0O
0V
0W
0[
1_
0p
1r
1i
1t
1~
1v
0z
1?
1R
0}
0S
#880000
0!
04
0=
0>
1k
#890000
1!
14
1=
1>
0k
1M
1O
1W
0i
0~
0v
0?
0@
1B
0R
1X
0s
1}
1S
0Y
#900000
0!
04
0=
0>
1k
#910000
1!
14
1=
1>
0k
0A
1C
0M
0O
1V
0W
1i
0t
1~
1v
0y
1z
1?
1R
0}
0S
#920000
0!
04
0=
0>
1k
#930000
1!
14
1=
1>
0k
1M
1O
1W
0i
0~
0v
0?
1@
0R
1\
0X
1s
0q
1}
1S
0]
1Y
#940000
0!
04
0=
0>
1k
#950000
1!
14
1=
1>
0k
1A
0M
0O
0V
0W
1[
0r
1i
1t
1~
1v
0z
1?
1R
0}
0S
#960000
0!
04
0=
0>
1k
#970000
1!
14
1=
1>
0k
1M
1O
1W
0i
0~
0v
0?
0@
0B
0D
1F
0R
1X
0s
1}
1S
0Y
#980000
0!
04
0=
0>
1k
#990000
1!
14
1=
1>
0k
0A
0C
0E
1G
0M
0O
1V
0W
1i
0t
1~
1v
0|
1{
1y
1z
1?
1R
0}
0S
#1000000
0!
04
0=
0>
1k
#1010000
1!
14
1=
1>
0k
1M
1O
1W
0i
0~
0v
0?
1@
0R
0\
0`
1d
0X
1s
0m
1o
1q
1}
1S
1]
1a
0e
1Y
#1020000
0!
04
0=
0>
1k
#1030000
1!
14
1=
1>
0k
1A
0M
0O
0V
0W
0[
0_
1c
0n
1p
1r
1i
1t
1~
1v
0z
1?
1R
0}
0S
#1040000
0!
04
0=
0>
1k
#1050000
1!
14
1=
1>
0k
1M
1O
1W
0i
0~
0v
0?
0@
1B
0R
1X
0s
1}
1S
0Y
#1060000
0!
04
0=
0>
1k
#1070000
1!
14
1=
1>
0k
0A
1C
0M
0O
1V
0W
1i
0t
1~
1v
0y
1z
1?
1R
0}
0S
#1080000
0!
04
0=
0>
1k
#1090000
1!
14
1=
1>
0k
1M
1O
1W
0i
0~
0v
0?
1@
0R
1\
0X
1s
0q
1}
1S
0]
1Y
#1100000
0!
04
0=
0>
1k
#1110000
1!
14
1=
1>
0k
1A
0M
0O
0V
0W
1[
0r
1i
1t
1~
1v
0z
1?
1R
0}
0S
#1120000
0!
04
0=
0>
1k
#1130000
1!
14
1=
1>
0k
1M
1O
1W
0i
0~
0v
0?
0@
0B
1D
0R
1X
0s
1}
1S
0Y
#1140000
0!
04
0=
0>
1k
#1150000
1!
14
1=
1>
0k
0A
0C
1E
0M
0O
1V
0W
1i
0t
1~
1v
0{
1y
1z
1?
1R
0}
0S
#1160000
0!
04
0=
0>
1k
#1170000
1!
14
1=
1>
0k
1M
1O
1W
0i
0~
0v
0?
1@
0R
0\
1`
0X
1s
0o
1q
1}
1S
1]
0a
1Y
#1180000
0!
04
0=
0>
1k
#1190000
1!
14
1=
1>
0k
1A
0M
0O
0V
0W
0[
1_
0p
1r
1i
1t
1~
1v
0z
1?
1R
0}
0S
#1200000
0!
04
0=
0>
1k
#1210000
1!
14
1=
1>
0k
1M
1O
1W
0i
0~
0v
0?
0@
1B
0R
1X
0s
1}
1S
0Y
#1220000
0!
04
0=
0>
1k
#1230000
1!
14
1=
1>
0k
0A
1C
0M
0O
1V
0W
1i
0t
1~
1v
0y
1z
1?
1R
0}
0S
#1240000
0!
04
0=
0>
1k
#1250000
1!
14
1=
1>
0k
1M
1O
1W
0i
0~
0v
0?
1@
0R
1\
0X
1s
0q
1}
1S
0]
1Y
#1260000
0!
04
0=
0>
1k
#1270000
1!
14
1=
1>
0k
1A
0M
0O
0V
0W
1[
0r
1i
1t
1~
1v
0z
1?
1R
0}
0S
#1280000
0!
04
0=
0>
1k
#1290000
1!
14
1=
1>
0k
1M
1O
1W
0i
0~
0v
0?
0@
0B
0D
0F
1H
0R
1X
0s
1}
1S
0Y
#1300000
0!
04
0=
0>
1k
#1310000
1!
14
1=
1>
0k
0A
0C
0E
0G
1I
0M
0O
1V
0W
1i
0t
1~
1v
0w
1|
1{
1y
1z
1K
1?
1R
0}
0x
0S
#1320000
0!
0(
04
05
0P
0=
0>
1k
1N
1h
0"!
06
0"
#1330000
1!
14
1=
1>
0k
0N
1M
1O
0Q
1W
0i
1!!
0~
0v
0?
1@
1L
0l
0I
0M
0O
0V
0W
0[
0_
0c
1n
1p
1r
1i
1t
1~
1v
1w
1?
0@
0H
0L
0R
0X
0\
0`
0d
1m
1o
1q
1s
1}
1l
1S
1Y
1]
1a
1e
#1340000
0!
04
0=
0>
1k
#1350000
1!
14
1=
1>
0k
1M
0v
0?
1@
1T
0u
0h
1"!
16
1"
#1360000
0!
04
0=
0>
1k
0T
1u
#1370000
1!
14
1=
1>
0k
1T
1A
0M
1v
0z
0u
0K
1?
0T
1u
1x
#1380000
0!
04
0=
0>
1k
#1390000
1!
14
1=
1>
0k
1M
0v
0?
0@
1B
